Part3/waveform.vcd
$date
	Tue Mar  8 19:23:11 2022
$end
$version
	Icarus Verilog
$end
$timescale
	100ps
$end
$scope module cpu_tb $end
$var wire 1 ! BUSYWAIT $end
$var wire 8 " WRITEDATA [7:0] $end
$var wire 1 # WRITE $end
$var wire 8 $ READDATA [7:0] $end
$var wire 1 % READ $end
$var wire 32 & PC [31:0] $end
$var wire 32 ' MEM_WRITEDATA [31:0] $end
$var wire 1 ( MEM_WRITE $end
$var wire 32 ) MEM_READDATA [31:0] $end
$var wire 1 * MEM_READ $end
$var wire 1 + MEM_BUSYWAIT $end
$var wire 6 , MEM_ADDRESS [5:0] $end
$var wire 32 - INSTRUCTION [31:0] $end
$var wire 1 . INSTRCACHE_BUSYWAIT $end
$var wire 128 / IMEM_READDATA [127:0] $end
$var wire 1 0 IMEM_READ $end
$var wire 6 1 IMEM_PC [5:0] $end
$var wire 1 2 IMEM_BUSYWAIT $end
$var wire 1 3 DCACHE_BUSYWAIT $end
$var wire 8 4 ADDRESS [7:0] $end
$var reg 1 5 CLK $end
$var reg 1 6 RESET $end
$scope module mycpu $end
$var wire 1 7 ANDOUT $end
$var wire 1 ! BUSYWAIT $end
$var wire 1 5 CLK $end
$var wire 1 8 OROUT $end
$var wire 1 6 RESET $end
$var wire 1 9 ZERO $end
$var wire 1 : WRITEENABLE $end
$var wire 8 ; WRITEDATA [7:0] $end
$var wire 1 # WRITE $end
$var wire 8 < TWOSRESULT [7:0] $end
$var wire 1 = SIGNAL $end
$var wire 8 > REGOUT2 [7:0] $end
$var wire 8 ? READDATA [7:0] $end
$var wire 1 % READ $end
$var wire 32 @ PCRESULT [31:0] $end
$var wire 32 A OFFSET [31:0] $end
$var wire 8 B MXR_OUT [7:0] $end
$var wire 8 C MUX2OUT [7:0] $end
$var wire 8 D MUX1OUT [7:0] $end
$var wire 1 E JUMP $end
$var wire 1 F ISMINUS $end
$var wire 1 G ISIMM $end
$var wire 32 H INSTRUCTION [31:0] $end
$var wire 32 I FINALPC [31:0] $end
$var wire 1 J BRANCH $end
$var wire 3 K ALUOP [2:0] $end
$var wire 8 L ADDRESS [7:0] $end
$var reg 8 M IMMEDIATE [7:0] $end
$var reg 8 N INCREMENT [7:0] $end
$var reg 8 O OPCODE [7:0] $end
$var reg 32 P PC [31:0] $end
$var reg 3 Q READREG1 [2:0] $end
$var reg 3 R READREG2 [2:0] $end
$var reg 3 S WRITEREG [2:0] $end
$scope module adder1 $end
$var wire 1 ! BUSY $end
$var wire 32 T PCINPUT [31:0] $end
$var reg 32 U PCNEXT [31:0] $end
$upscope $end
$scope module adder2 $end
$var wire 1 ! BUSY $end
$var wire 8 V INCREMENT [7:0] $end
$var wire 32 W PCINPUT2 [31:0] $end
$var reg 32 X PCNEXT2 [31:0] $end
$upscope $end
$scope module alu1 $end
$var wire 3 Y SELECT [2:0] $end
$var wire 8 Z OR_RESULT [7:0] $end
$var wire 8 [ FORWARD_RESULT [7:0] $end
$var wire 8 \ DATA2 [7:0] $end
$var wire 8 ] DATA1 [7:0] $end
$var wire 8 ^ AND_RESULT [7:0] $end
$var wire 8 _ ADD_RESULT [7:0] $end
$var reg 8 ` RESULT [7:0] $end
$var reg 1 9 ZERO $end
$scope module myadd $end
$var wire 8 a OUT [7:0] $end
$var wire 8 b IN2 [7:0] $end
$var wire 8 c IN1 [7:0] $end
$upscope $end
$scope module myand $end
$var wire 8 d OUT [7:0] $end
$var wire 8 e IN2 [7:0] $end
$var wire 8 f IN1 [7:0] $end
$upscope $end
$scope module myforward $end
$var wire 8 g OUT [7:0] $end
$var wire 8 h IN [7:0] $end
$upscope $end
$scope module myor $end
$var wire 8 i OUT [7:0] $end
$var wire 8 j IN2 [7:0] $end
$var wire 8 k IN1 [7:0] $end
$upscope $end
$upscope $end
$scope module controlUnit1 $end
$var wire 1 ! BUSYWAIT $end
$var wire 8 l OP [7:0] $end
$var wire 32 m INSTRUCTION [31:0] $end
$var reg 3 n ALUOP [2:0] $end
$var reg 1 J BRANCH $end
$var reg 1 G ISIMM $end
$var reg 1 F ISMINUS $end
$var reg 1 E JUMP $end
$var reg 1 % READ $end
$var reg 1 = SIGNAL $end
$var reg 1 # WRITE $end
$var reg 1 : WRITEENABLE $end
$upscope $end
$scope module mux01 $end
$var wire 32 o MUXIN1 [31:0] $end
$var wire 32 p MUXIN2 [31:0] $end
$var wire 1 8 MUXSELECT $end
$var reg 32 q MUXOUT [31:0] $end
$upscope $end
$scope module mux1twos $end
$var wire 1 F MUXSELECT $end
$var wire 8 r MUXIN2 [7:0] $end
$var wire 8 s MUXIN1 [7:0] $end
$var reg 8 t MUXOUT [7:0] $end
$upscope $end
$scope module mux2imm $end
$var wire 8 u MUXIN1 [7:0] $end
$var wire 8 v MUXIN2 [7:0] $end
$var wire 1 G MUXSELECT $end
$var reg 8 w MUXOUT [7:0] $end
$upscope $end
$scope module muxtoreg $end
$var wire 8 x MUXIN1 [7:0] $end
$var wire 1 = MUXSELECT $end
$var wire 8 y MUXIN2 [7:0] $end
$var reg 8 z MUXOUT [7:0] $end
$upscope $end
$scope module regfile1 $end
$var wire 1 5 CLK $end
$var wire 8 { IN [7:0] $end
$var wire 3 | INADDRESS [2:0] $end
$var wire 8 } OUT1 [7:0] $end
$var wire 3 ~ OUT1ADDRESS [2:0] $end
$var wire 8 !" OUT2 [7:0] $end
$var wire 3 "" OUT2ADDRESS [2:0] $end
$var wire 1 6 RESET $end
$var wire 1 : WRITE $end
$var integer 32 #" i [31:0] $end
$upscope $end
$scope module twosComp1 $end
$var wire 8 $" TWOSIN [7:0] $end
$var wire 8 %" TWOSOUT [7:0] $end
$upscope $end
$upscope $end
$scope module mydatamem $end
$var wire 1 5 clock $end
$var wire 1 6 reset $end
$var wire 32 &" writedata [31:0] $end
$var wire 1 ( write $end
$var wire 1 * read $end
$var wire 6 '" address [5:0] $end
$var reg 1 + busywait $end
$var reg 1 (" readaccess $end
$var reg 32 )" readdata [31:0] $end
$var reg 1 *" writeaccess $end
$var integer 32 +" i [31:0] $end
$upscope $end
$scope module mydcache $end
$var wire 8 ," address [7:0] $end
$var wire 1 5 clock $end
$var wire 3 -" dataBlockTag [2:0] $end
$var wire 1 ." hit $end
$var wire 1 + mem_busywait $end
$var wire 32 /" mem_readdata [31:0] $end
$var wire 1 % read $end
$var wire 1 6 reset $end
$var wire 1 # write $end
$var wire 8 0" writedata [7:0] $end
$var wire 1 1" valid $end
$var wire 1 2" tagMatch $end
$var wire 3 3" tag [2:0] $end
$var wire 2 4" offset [1:0] $end
$var wire 3 5" index [2:0] $end
$var wire 1 6" dirty $end
$var reg 1 3 busywait $end
$var reg 8 7" data [7:0] $end
$var reg 32 8" dataBlock [31:0] $end
$var reg 8 9" dirtyArr [7:0] $end
$var reg 6 :" mem_address [5:0] $end
$var reg 1 * mem_read $end
$var reg 1 ( mem_write $end
$var reg 32 ;" mem_writedata [31:0] $end
$var reg 3 <" next_state [2:0] $end
$var reg 8 =" readdata [7:0] $end
$var reg 3 >" state [2:0] $end
$var reg 8 ?" validArr [7:0] $end
$var integer 32 @" i [31:0] $end
$upscope $end
$scope module myicache $end
$var wire 1 5 clock $end
$var wire 10 A" i_pc [9:0] $end
$var wire 1 6 reset $end
$var wire 3 B" tag [2:0] $end
$var wire 2 C" offset [1:0] $end
$var wire 3 D" index [2:0] $end
$var wire 128 E" imem_readdata [127:0] $end
$var wire 1 2 imem_busywait $end
$var reg 1 F" cacheUpdate $end
$var reg 128 G" correct_iblock [127:0] $end
$var reg 3 H" correct_itag [2:0] $end
$var reg 3 I" correct_validbit [2:0] $end
$var reg 1 J" hit $end
$var reg 1 . i_busywait $end
$var reg 6 K" imem_pc [5:0] $end
$var reg 1 0 imem_read $end
$var reg 32 L" instruction [31:0] $end
$var reg 1 M" itagMatch $end
$var reg 3 N" next_state [2:0] $end
$var reg 3 O" state [2:0] $end
$var integer 32 P" i [31:0] $end
$upscope $end
$scope module myinstrmem $end
$var wire 6 Q" address [5:0] $end
$var wire 1 5 clock $end
$var wire 1 0 read $end
$var reg 1 2 busywait $end
$var reg 1 R" readaccess $end
$var reg 128 S" readinst [127:0] $end
$upscope $end
$upscope $end
$enddefinitions $end
#0
$dumpvars
bx S"
0R"
bx Q"
b1000 P"
b0 O"
b0 N"
xM"
bx L"
bx K"
xJ"
bx I"
bx H"
bx G"
0F"
bx E"
bx D"
bx C"
bx B"
bx A"
b1000 @"
b0 ?"
b0 >"
bx ="
b0 <"
bx ;"
b0xxxxx :"
b0 9"
bx 8"
bx 7"
x6"
bx 5"
bx 4"
bx 3"
x2"
x1"
bx 0"
bx /"
x."
bx -"
bx ,"
b100000000 +"
0*"
bx )"
0("
b0xxxxx '"
bx &"
bx %"
bx $"
bx #"
bx ""
bx !"
bx ~
bx }
bx |
bx {
bx z
bx y
bx x
bx w
bx v
bx u
bx t
bx s
bx r
bx q
bx p
bx o
bx n
bx m
bx l
bx k
bx j
bx i
bx h
bx g
bx f
bx e
bx d
bx c
bx b
bx a
bx `
bx _
bx ^
bx ]
bx \
bx [
bx Z
bx Y
bx X
bx W
bx V
bx U
bx T
bx S
bx R
bx Q
bx P
bx O
bx N
bx M
bx L
bx K
xJ
bx I
bx H
xG
xF
xE
bx D
bx C
bx B
bx A
bx @
bx ?
bx >
x=
bx <
bx ;
x:
x9
x8
x7
16
05
bx 4
03
02
bx 1
00
bx /
0.
bx -
b0xxxxx ,
0+
0*
bx )
0(
bx '
bx &
0%
bx $
0#
bx "
0!
$end
#10
b0x I"
#40
15
#50
b0 B"
b0 D"
b0 C"
b0 A"
b1000 #"
b0 &
b0 P
b0 T
#60
b0 I"
b100 @
b100 U
b100 W
b100 p
#69
1!
b1 N"
1.
0J"
#80
1R"
12
1F"
b0 1
b0 K"
b0 Q"
10
b1 N"
b1 O"
05
06
#120
15
#160
05
#200
15
#240
05
#280
15
#320
05
#360
15
#400
05
#440
15
#480
05
#520
15
bx00011001 /
bx00011001 E"
bx00011001 S"
#560
05
#600
15
#640
05
#680
15
#720
05
#760
15
#800
05
#840
15
#880
05
#920
15
bx0000000000011001 /
bx0000000000011001 E"
bx0000000000011001 S"
#960
05
#1000
15
#1040
05
#1080
15
#1120
05
#1160
15
#1200
05
#1240
15
#1280
05
#1320
15
bx000001000000000000011001 /
bx000001000000000000011001 E"
bx000001000000000000011001 S"
#1360
05
#1400
15
#1440
05
#1480
15
#1520
05
#1560
15
#1600
05
#1640
15
#1680
05
#1720
15
bx00000000000001000000000000011001 /
bx00000000000001000000000000011001 E"
bx00000000000001000000000000011001 S"
#1760
05
#1800
15
#1840
05
#1880
15
#1920
05
#1960
15
#2000
05
#2040
15
#2080
05
#2120
15
bx0010001100000000000001000000000000011001 /
bx0010001100000000000001000000000000011001 E"
bx0010001100000000000001000000000000011001 S"
#2160
05
#2200
15
#2240
05
#2280
15
#2320
05
#2360
15
#2400
05
#2440
15
#2480
05
#2520
15
bx000000000010001100000000000001000000000000011001 /
bx000000000010001100000000000001000000000000011001 E"
bx000000000010001100000000000001000000000000011001 S"
#2560
05
#2600
15
#2640
05
#2680
15
#2720
05
#2760
15
#2800
05
#2840
15
#2880
05
#2920
15
bx00000101000000000010001100000000000001000000000000011001 /
bx00000101000000000010001100000000000001000000000000011001 E"
bx00000101000000000010001100000000000001000000000000011001 S"
#2960
05
#3000
15
#3040
05
#3080
15
#3120
05
#3160
15
#3200
05
#3240
15
#3280
05
#3320
15
bx0000000000000101000000000010001100000000000001000000000000011001 /
bx0000000000000101000000000010001100000000000001000000000000011001 E"
bx0000000000000101000000000010001100000000000001000000000000011001 S"
#3360
05
#3400
15
#3440
05
#3480
15
#3520
05
#3560
15
#3600
05
#3640
15
#3680
05
#3720
15
bx000001010000000000000101000000000010001100000000000001000000000000011001 /
bx000001010000000000000101000000000010001100000000000001000000000000011001 E"
bx000001010000000000000101000000000010001100000000000001000000000000011001 S"
#3760
05
#3800
15
#3840
05
#3880
15
#3920
05
#3960
15
#4000
05
#4040
15
#4080
05
#4120
15
bx00000100000001010000000000000101000000000010001100000000000001000000000000011001 /
bx00000100000001010000000000000101000000000010001100000000000001000000000000011001 E"
bx00000100000001010000000000000101000000000010001100000000000001000000000000011001 S"
#4160
05
#4200
15
#4240
05
#4280
15
#4320
05
#4360
15
#4400
05
#4440
15
#4480
05
#4520
15
bx0000011000000100000001010000000000000101000000000010001100000000000001000000000000011001 /
bx0000011000000100000001010000000000000101000000000010001100000000000001000000000000011001 E"
bx0000011000000100000001010000000000000101000000000010001100000000000001000000000000011001 S"
#4560
05
#4600
15
#4640
05
#4680
15
#4720
05
#4760
15
#4800
05
#4840
15
#4880
05
#4920
15
bx000000100000011000000100000001010000000000000101000000000010001100000000000001000000000000011001 /
bx000000100000011000000100000001010000000000000101000000000010001100000000000001000000000000011001 E"
bx000000100000011000000100000001010000000000000101000000000010001100000000000001000000000000011001 S"
#4960
05
#5000
15
#5040
05
#5080
15
#5120
05
#5160
15
#5200
05
#5240
15
#5280
05
#5320
15
bx01011010000000100000011000000100000001010000000000000101000000000010001100000000000001000000000000011001 /
bx01011010000000100000011000000100000001010000000000000101000000000010001100000000000001000000000000011001 E"
bx01011010000000100000011000000100000001010000000000000101000000000010001100000000000001000000000000011001 S"
#5360
05
#5400
15
#5440
05
#5480
15
#5520
05
#5560
15
#5600
05
#5640
15
#5680
05
#5720
15
bx0000000001011010000000100000011000000100000001010000000000000101000000000010001100000000000001000000000000011001 /
bx0000000001011010000000100000011000000100000001010000000000000101000000000010001100000000000001000000000000011001 E"
bx0000000001011010000000100000011000000100000001010000000000000101000000000010001100000000000001000000000000011001 S"
#5760
05
#5800
15
#5840
05
#5880
15
#5920
05
#5960
15
#6000
05
#6040
15
#6080
05
#6120
15
bx000000010000000001011010000000100000011000000100000001010000000000000101000000000010001100000000000001000000000000011001 /
bx000000010000000001011010000000100000011000000100000001010000000000000101000000000010001100000000000001000000000000011001 E"
bx000000010000000001011010000000100000011000000100000001010000000000000101000000000010001100000000000001000000000000011001 S"
#6160
05
#6200
15
#6240
05
#6280
15
#6320
05
#6360
15
#6400
05
#6440
15
#6480
05
#6520
0F"
bx 1
bx K"
bx Q"
00
b0 O"
b1 N"
15
0R"
02
b10000000001011010000000100000011000000100000001010000000000000101000000000010001100000000000001000000000000011001 /
b10000000001011010000000100000011000000100000001010000000000000101000000000010001100000000000001000000000000011001 E"
b10000000001011010000000100000011000000100000001010000000000000101000000000010001100000000000001000000000000011001 S"
#6540
b1 I"
b0 H"
b10000000001011010000000100000011000000100000001010000000000000101000000000010001100000000000001000000000000011001 G"
#6549
0!
b0 N"
0.
1J"
1M"
#6559
b100 N
b100 V
b11001 M
b11001 v
b1 R
b1 ""
b0 Q
b0 ~
b100 S
b100 |
b0 O
b0 l
b1000000000000011001 -
b1000000000000011001 H
b1000000000000011001 m
b1000000000000011001 L"
#6560
05
#6569
b100 I
b100 q
09
b11001 C
b11001 \
b11001 b
b11001 e
b11001 h
b11001 j
b11001 w
08
07
b0 K
b0 Y
b0 n
1:
0F
1G
0E
0J
0=
b10100 A
b10100 X
b10100 o
#6579
b110 5"
b11001 B
b11001 z
b11001 {
b0 3"
b1 4"
b11001 4
b11001 L
b11001 `
b11001 x
b11001 ,"
b0 D
b0 t
b0 u
bx11xx1 Z
bx11xx1 i
b0xx00x ^
b0xx00x d
b11001 [
b11001 g
b0 >
b0 s
b0 !"
b0 $"
b0 "
b0 ;
b0 ]
b0 c
b0 f
b0 k
b0 }
b0 0"
#6589
0."
01"
06"
b0 <
b0 r
b0 %"
b11001 Z
b11001 i
b0 ^
b0 d
#6599
b11001 _
b11001 a
#6600
15
#6610
b1 C"
b100 A"
b100 &
b100 P
b100 T
#6620
b100011 C
b100011 \
b100011 b
b100011 e
b100011 h
b100011 j
b100011 w
b101 N
b101 V
b100011 M
b100011 v
b11 R
b11 ""
b101 S
b101 |
b1000 I
b1000 q
b1010000000000100011 -
b1010000000000100011 H
b1010000000000100011 m
b1010000000000100011 L"
b1000 @
b1000 U
b1000 W
b1000 p
#6630
b0 5"
b100011 B
b100011 z
b100011 {
b1 3"
b11 4"
b100011 4
b100011 L
b100011 `
b100011 x
b100011 ,"
b100011 Z
b100011 i
b100011 [
b100011 g
#6640
b100011 _
b100011 a
b11100 A
b11100 X
b11100 o
05
#6680
15
#6690
b10 C"
b1000 A"
b1000 &
b1000 P
b1000 T
#6700
b101 C
b101 \
b101 b
b101 e
b101 h
b101 j
b101 w
b110 N
b110 V
b101 M
b101 v
b101 R
b101 ""
b100 Q
b100 ~
b110 S
b110 |
b10 O
b10 l
b1100 I
b1100 q
b10000001100000010000000101 -
b10000001100000010000000101 H
b10000001100000010000000101 m
b10000001100000010000000101 L"
b1100 @
b1100 U
b1100 W
b1100 p
#6710
b0 C
b0 \
b0 b
b0 e
b0 h
b0 j
b0 w
b101 Z
b101 i
b101 [
b101 g
b1 K
b1 Y
b1 n
0G
#6720
b100011 C
b100011 \
b100011 b
b100011 e
b100011 h
b100011 j
b100011 w
b100011 D
b100011 t
b100011 u
b0 Z
b0 i
b0 [
b0 g
b100011 >
b100011 s
b100011 !"
b100011 $"
b11001 "
b11001 ;
b11001 ]
b11001 c
b11001 f
b11001 k
b11001 }
b11001 0"
b100100 A
b100100 X
b100100 o
05
#6730
b1 ^
b1 d
b100011 [
b100011 g
b11011101 <
b11011101 r
b11011101 %"
b111011 Z
b111011 i
#6740
b111 5"
b111100 B
b111100 z
b111100 {
b0 4"
b111100 4
b111100 L
b111100 `
b111100 x
b111100 ,"
b111100 _
b111100 a
#6760
15
#6770
b11 C"
b1100 A"
b1100 &
b1100 P
b1100 T
#6780
b1 N
b1 V
b1011010 M
b1011010 v
b10 R
b10 ""
b0 Q
b0 ~
b1 S
b1 |
b0 O
b0 l
b10000 I
b10000 q
b10000000001011010 -
b10000000001011010 H
b10000000001011010 m
b10000000001011010 L"
b10000 @
b10000 U
b10000 W
b10000 p
#6790
b0 5"
b100011 B
b100011 z
b100011 {
b11 4"
b100011 4
b100011 L
b100011 `
b100011 x
b100011 ,"
b1011010 C
b1011010 \
b1011010 b
b1011010 e
b1011010 h
b1011010 j
b1011010 w
b0 K
b0 Y
b0 n
1G
#6800
b110 5"
b1011010 B
b1011010 z
b1011010 {
b10 3"
b10 4"
b1011010 4
b1011010 L
b1011010 `
b1011010 x
b1011010 ,"
b0 D
b0 t
b0 u
b1011011 Z
b1011011 i
b11000 ^
b11000 d
b1011010 [
b1011010 g
b0 >
b0 s
b0 !"
b0 $"
b0 "
b0 ;
b0 ]
b0 c
b0 f
b0 k
b0 }
b0 0"
b10100 A
b10100 X
b10100 o
05
#6810
b0 <
b0 r
b0 %"
b1011010 Z
b1011010 i
b0 ^
b0 d
#6820
b1011010 _
b1011010 a
#6840
15
#6850
b1 D"
b0 C"
b10000 A"
b10000 &
b10000 P
b10000 T
#6860
b11001 C
b11001 \
b11001 b
b11001 e
b11001 h
b11001 j
b11001 w
b100 N
b100 V
b11001 M
b11001 v
b1 R
b1 ""
b100 S
b100 |
b10100 I
b10100 q
b0 I"
bx H"
bx G"
b1000000000000011001 -
b1000000000000011001 H
b1000000000000011001 m
b1000000000000011001 L"
b10100 @
b10100 U
b10100 W
b10100 p
#6869
1!
b1 N"
1.
0J"
xM"
#6870
b11001 B
b11001 z
b11001 {
b0 3"
b1 4"
bx C
bx \
bx b
bx e
bx h
bx j
bx w
b11001 4
b11001 L
b11001 `
b11001 x
b11001 ,"
bx N
bx V
bx M
bx v
bx R
bx ""
bx Q
bx ~
bx S
bx |
bx O
bx l
b11001 Z
b11001 i
b11001 [
b11001 g
bx -
bx H
bx m
bx L"
#6880
bx 5"
bx B
bx z
bx {
bx 3"
bx 4"
bx 4
bx L
bx `
bx x
bx ,"
bx Z
bx i
bx [
bx g
bx A
bx X
bx o
05
#6890
x."
bx D
bx t
bx u
x1"
x6"
bx _
bx a
bx >
bx s
bx !"
bx $"
bx "
bx ;
bx ]
bx c
bx f
bx k
bx }
bx 0"
#6900
bx <
bx r
bx %"
bx ^
bx d
#6920
1R"
12
1F"
b1 1
b1 K"
b1 Q"
10
b1 N"
b1 O"
15
#6960
05
#7000
15
#7040
05
#7080
15
#7120
05
#7160
15
#7200
05
#7240
15
#7280
05
#7320
15
#7360
05
#7400
15
b10000000001011010000000100000011000000100000001010000000000000101000000000010001100000000000001000000000000000100 /
b10000000001011010000000100000011000000100000001010000000000000101000000000010001100000000000001000000000000000100 E"
b10000000001011010000000100000011000000100000001010000000000000101000000000010001100000000000001000000000000000100 S"
#7440
05
#7480
15
#7520
05
#7560
15
#7600
05
#7640
15
#7680
05
#7720
15
#7760
05
#7800
15
b10000000001011010000000100000011000000100000001010000000000000101000000000010001100000000000001000000000100000100 /
b10000000001011010000000100000011000000100000001010000000000000101000000000010001100000000000001000000000100000100 E"
b10000000001011010000000100000011000000100000001010000000000000101000000000010001100000000000001000000000100000100 S"
#7840
05
#7880
15
#7920
05
#7960
15
#8000
05
#8040
15
#8080
05
#8120
15
#8160
05
#8200
15
b10000000001011010000000100000011000000100000001010000000000000101000000000010001100000000000000010000000100000100 /
b10000000001011010000000100000011000000100000001010000000000000101000000000010001100000000000000010000000100000100 E"
b10000000001011010000000100000011000000100000001010000000000000101000000000010001100000000000000010000000100000100 S"
#8240
05
#8280
15
#8320
05
#8360
15
#8400
05
#8440
15
#8480
05
#8520
15
#8560
05
#8600
15
b10000000001011010000000100000011000000100000001010000000000000101000000000010001100000011000000010000000100000100 /
b10000000001011010000000100000011000000100000001010000000000000101000000000010001100000011000000010000000100000100 E"
b10000000001011010000000100000011000000100000001010000000000000101000000000010001100000011000000010000000100000100 S"
#8640
05
#8680
15
#8720
05
#8760
15
#8800
05
#8840
15
#8880
05
#8920
15
#8960
05
#9000
15
b1000000000101101000000010000001100000010000000101000000000000010100000000xxxxxxxx00000011000000010000000100000100 /
b1000000000101101000000010000001100000010000000101000000000000010100000000xxxxxxxx00000011000000010000000100000100 E"
b1000000000101101000000010000001100000010000000101000000000000010100000000xxxxxxxx00000011000000010000000100000100 S"
#9040
05
#9080
15
#9120
05
#9160
15
#9200
05
#9240
15
#9280
05
#9320
15
#9360
05
#9400
15
b10000000001011010000000100000011000000100000001010000000000000101xxxxxxxxxxxxxxxx00000011000000010000000100000100 /
b10000000001011010000000100000011000000100000001010000000000000101xxxxxxxxxxxxxxxx00000011000000010000000100000100 E"
b10000000001011010000000100000011000000100000001010000000000000101xxxxxxxxxxxxxxxx00000011000000010000000100000100 S"
#9440
05
#9480
15
#9520
05
#9560
15
#9600
05
#9640
15
#9680
05
#9720
15
#9760
05
#9800
15
b100000000010110100000001000000110000001000000010100000000xxxxxxxxxxxxxxxxxxxxxxxx00000011000000010000000100000100 /
b100000000010110100000001000000110000001000000010100000000xxxxxxxxxxxxxxxxxxxxxxxx00000011000000010000000100000100 E"
b100000000010110100000001000000110000001000000010100000000xxxxxxxxxxxxxxxxxxxxxxxx00000011000000010000000100000100 S"
#9840
05
#9880
15
#9920
05
#9960
15
#10000
05
#10040
15
#10080
05
#10120
15
#10160
05
#10200
15
b1000000000101101000000010000001100000010000000101xxxxxxxxxxxxxxxxxxxxxxxxxxxxxxxx00000011000000010000000100000100 /
b1000000000101101000000010000001100000010000000101xxxxxxxxxxxxxxxxxxxxxxxxxxxxxxxx00000011000000010000000100000100 E"
b1000000000101101000000010000001100000010000000101xxxxxxxxxxxxxxxxxxxxxxxxxxxxxxxx00000011000000010000000100000100 S"
#10240
05
#10280
15
#10320
05
#10360
15
#10400
05
#10440
15
#10480
05
#10520
15
#10560
05
#10600
15
b10000000001011010000000100000011000000100xxxxxxxxxxxxxxxxxxxxxxxxxxxxxxxxxxxxxxxx00000011000000010000000100000100 /
b10000000001011010000000100000011000000100xxxxxxxxxxxxxxxxxxxxxxxxxxxxxxxxxxxxxxxx00000011000000010000000100000100 E"
b10000000001011010000000100000011000000100xxxxxxxxxxxxxxxxxxxxxxxxxxxxxxxxxxxxxxxx00000011000000010000000100000100 S"
#10640
05
#10680
15
#10720
05
#10760
15
#10800
05
#10840
15
#10880
05
#10920
15
#10960
05
#11000
15
b100000000010110100000001000000110xxxxxxxxxxxxxxxxxxxxxxxxxxxxxxxxxxxxxxxxxxxxxxxx00000011000000010000000100000100 /
b100000000010110100000001000000110xxxxxxxxxxxxxxxxxxxxxxxxxxxxxxxxxxxxxxxxxxxxxxxx00000011000000010000000100000100 E"
b100000000010110100000001000000110xxxxxxxxxxxxxxxxxxxxxxxxxxxxxxxxxxxxxxxxxxxxxxxx00000011000000010000000100000100 S"
#11040
05
#11080
15
#11120
05
#11160
15
#11200
05
#11240
15
#11280
05
#11320
15
#11360
05
#11400
15
b1000000000101101000000010xxxxxxxxxxxxxxxxxxxxxxxxxxxxxxxxxxxxxxxxxxxxxxxxxxxxxxxx00000011000000010000000100000100 /
b1000000000101101000000010xxxxxxxxxxxxxxxxxxxxxxxxxxxxxxxxxxxxxxxxxxxxxxxxxxxxxxxx00000011000000010000000100000100 E"
b1000000000101101000000010xxxxxxxxxxxxxxxxxxxxxxxxxxxxxxxxxxxxxxxxxxxxxxxxxxxxxxxx00000011000000010000000100000100 S"
#11440
05
#11480
15
#11520
05
#11560
15
#11600
05
#11640
15
#11680
05
#11720
15
#11760
05
#11800
15
b10000000001011010xxxxxxxxxxxxxxxxxxxxxxxxxxxxxxxxxxxxxxxxxxxxxxxxxxxxxxxxxxxxxxxx00000011000000010000000100000100 /
b10000000001011010xxxxxxxxxxxxxxxxxxxxxxxxxxxxxxxxxxxxxxxxxxxxxxxxxxxxxxxxxxxxxxxx00000011000000010000000100000100 E"
b10000000001011010xxxxxxxxxxxxxxxxxxxxxxxxxxxxxxxxxxxxxxxxxxxxxxxxxxxxxxxxxxxxxxxx00000011000000010000000100000100 S"
#11840
05
#11880
15
#11920
05
#11960
15
#12000
05
#12040
15
#12080
05
#12120
15
#12160
05
#12200
15
b100000000xxxxxxxxxxxxxxxxxxxxxxxxxxxxxxxxxxxxxxxxxxxxxxxxxxxxxxxxxxxxxxxxxxxxxxxx00000011000000010000000100000100 /
b100000000xxxxxxxxxxxxxxxxxxxxxxxxxxxxxxxxxxxxxxxxxxxxxxxxxxxxxxxxxxxxxxxxxxxxxxxx00000011000000010000000100000100 E"
b100000000xxxxxxxxxxxxxxxxxxxxxxxxxxxxxxxxxxxxxxxxxxxxxxxxxxxxxxxxxxxxxxxxxxxxxxxx00000011000000010000000100000100 S"
#12240
05
#12280
15
#12320
05
#12360
15
#12400
05
#12440
15
#12480
05
#12520
15
#12560
05
#12600
15
b1xxxxxxxxxxxxxxxxxxxxxxxxxxxxxxxxxxxxxxxxxxxxxxxxxxxxxxxxxxxxxxxxxxxxxxxxxxxxxxxx00000011000000010000000100000100 /
b1xxxxxxxxxxxxxxxxxxxxxxxxxxxxxxxxxxxxxxxxxxxxxxxxxxxxxxxxxxxxxxxxxxxxxxxxxxxxxxxx00000011000000010000000100000100 E"
b1xxxxxxxxxxxxxxxxxxxxxxxxxxxxxxxxxxxxxxxxxxxxxxxxxxxxxxxxxxxxxxxxxxxxxxxxxxxxxxxx00000011000000010000000100000100 S"
#12640
05
#12680
15
#12720
05
#12760
15
#12800
05
#12840
15
#12880
05
#12920
15
#12960
05
#13000
15
b0xxxxxxxxxxxxxxxxxxxxxxxxxxxxxxxxxxxxxxxxxxxxxxxxxxxxxxxxxxxxxxxxxxxxxxxxxxxxxxxxxxxxxxxx00000011000000010000000100000100 /
b0xxxxxxxxxxxxxxxxxxxxxxxxxxxxxxxxxxxxxxxxxxxxxxxxxxxxxxxxxxxxxxxxxxxxxxxxxxxxxxxxxxxxxxxx00000011000000010000000100000100 E"
b0xxxxxxxxxxxxxxxxxxxxxxxxxxxxxxxxxxxxxxxxxxxxxxxxxxxxxxxxxxxxxxxxxxxxxxxxxxxxxxxxxxxxxxxx00000011000000010000000100000100 S"
#13040
05
#13080
15
#13120
05
#13160
15
#13200
05
#13240
15
#13280
05
#13320
15
#13360
05
#13400
0F"
bx 1
bx K"
bx Q"
00
b0 O"
b1 N"
15
0R"
02
bx00000011000000010000000100000100 /
bx00000011000000010000000100000100 E"
bx00000011000000010000000100000100 S"
#13420
b1 I"
b0 H"
bx00000011000000010000000100000100 G"
#13429
0!
b0 N"
0.
1J"
1M"
#13439
b100 C
b100 \
b100 b
b100 e
b100 h
b100 j
b100 w
b1 N
b1 V
b100 M
b100 v
b100 R
b100 ""
b1 Q
b1 ~
b1 S
b1 |
b11 O
b11 l
b11000000010000000100000100 -
b11000000010000000100000100 H
b11000000010000000100000100 m
b11000000010000000100000100 L"
#13440
05
#13449
bx C
bx \
bx b
bx e
bx h
bx j
bx w
bx1xx Z
bx1xx i
b0x00 ^
b0x00 d
b100 [
b100 g
b1 K
b1 Y
b1 n
1F
0G
b11000 A
b11000 X
b11000 o
#13459
bx Z
bx i
bx ^
bx d
bx [
bx g
b11001 >
b11001 s
b11001 !"
b11001 $"
b1011010 "
b1011010 ;
b1011010 ]
b1011010 c
b1011010 f
b1011010 k
b1011010 }
b1011010 0"
#13469
b11100111 C
b11100111 \
b11100111 b
b11100111 e
b11100111 h
b11100111 j
b11100111 w
b11100111 D
b11100111 t
b11100111 u
b11100111 <
b11100111 r
b11100111 %"
bx1x11x1x Z
bx1x11x1x i
b0x0xx0x0 ^
b0x0xx0x0 d
#13479
b11111111 Z
b11111111 i
b1000010 ^
b1000010 d
b11100111 [
b11100111 g
#13480
15
#13489
b0 5"
b1000001 B
b1000001 z
b1000001 {
b10 3"
b1 4"
b1000001 4
b1000001 L
b1000001 `
b1000001 x
b1000001 ,"
b1000001 _
b1000001 a
#13490
b1 C"
b10100 A"
b10100 &
b10100 P
b10100 T
